# Fdb version 3
["pdflatex"] 1457179611 "education.tex" "education.pdf" "education" 1457179611
  "/usr/share/texmf-dist/web2c/texmf.cnf" 1447534201 31669 df537245012f3e5f05bdc55644b7a3df ""
  "/var/lib/texmf/web2c/pdftex/pdflatex.fmt" 1455898530 7214063 237b935d0697bcda7e5f3ae225964cce ""
  "education.aux" 1457179040 8 a94a2480d3289e625eea47cd1b285758 ""
  "education.tex" 1457179609 1273 aa15fe81471cf5ef50ab0f5d837e0c61 ""
  (generated)
  "education.pdf"
  "education.log"
